Tidymodels Machine Learning Ecosystem | Jixing Liu
…
juice

Not bad, we’ve reduced 13 variables down to 7. This probably wasn’t the best use case of PCA, but it provides a good example of some advanced preprocessing made simple in {recipes}.

data_rec_trained %>% 
  juice() %>% 
  select(starts_with("PC")) # select principal component

## # A tibble: 2,346 x 7
##        PC1    PC2     PC3     PC4    PC5     PC6     PC7
##      <dbl>  <dbl>   <dbl>   <dbl>  <dbl>   <dbl>   <dbl>
##  1 -1.63    1.16   0.650  -0.440  -0.264 -0.601  -2.05  
##  2  0.874   0.305  0.311  -0.656  -0.345 -0.475   0.143 
##  3 -0.613   1.57   0.0386 -0.106  -0.610 -1.44   -0.0504
##  4  0.381   0.953  0.421   0.341  -0.105 -0.989  -0.548 
##  5  0.166   0.957  0.363   0.458  -0.486 -1.57    0.0933
##  6 -0.0448 -0.268 -0.665  -0.337  -0.121  0.258   0.389 
##  7 -0.174  -0.249 -0.612   0.215   0.607  0.664   0.287 
##  8 -1.61    0.459 -0.0692  0.765   0.622  0.0958  0.471 
##  9  0.0192 -1.53   0.449   0.0537 -0.312 -0.149   0.251 
## 10 -0.0231  1.90   0.0478  0.197  -0.799 -1.95    0.531 
## # … with 2,336 more rows
…
set non-regular paraments for grid search

{tune} also provides ways to create non-regular grids as well.

Random grids generated using grid_random() will uniformly sample the parameter space.

Space-filling designs (SFD) generated using grid_max_entropy() will try to keep candidate values away from one another in order to more efficiently cover the parameter space.

The below shows how to create a SFD grid and plots 25 candidate values.

sfd_grid <- grid_max_entropy(mixture_param, size = 25)

sfd_grid

## # A tibble: 25 x 2
##     penalty mixture
##       <dbl>   <dbl>
##  1 1.19e- 7 0.997  
##  2 6.06e- 1 0.0986 
##  3 5.44e- 9 0.718  
##  4 2.27e- 5 0.215  
##  5 2.20e- 7 0.826  
##  6 1.24e- 1 0.929  
##  7 3.25e- 4 0.693  
##  8 6.89e- 3 0.00913
##  9 1.01e- 6 0.517  
## 10 1.71e-10 0.970  
## # … with 15 more rows
…
