…
## # A tibble: 2 x 3
##   .metric  .estimator .estimate
##   <chr>    <chr>          <dbl>
## 1 accuracy binary         0.755
## 2 roc_auc  binary         0.829

predict

# generate predictions from the test set
test_predictions <- rf_fit %>% collect_predictions()
test_predictions

## # A tibble: 192 x 6
##    id               .pred_neg .pred_pos  .row .pred_class diabetes
##    <chr>                <dbl>     <dbl> <int> <fct>       <fct>   
##  1 train/test split     0.249    0.751      1 pos         pos     
##  2 train/test split     0.292    0.708      3 pos         pos     
##  3 train/test split     0.402    0.598      5 pos         pos     
##  4 train/test split     0.587    0.413     10 neg         pos     
##  5 train/test split     0.428    0.572     14 pos         pos     
##  6 train/test split     0.785    0.215     19 neg         neg     
##  7 train/test split     0.417    0.583     25 pos         pos     
##  8 train/test split     0.203    0.797     32 pos         pos     
##  9 train/test split     0.973    0.0272    34 neg         neg     
## 10 train/test split     0.277    0.723     37 pos         neg     
## # … with 182 more rows
…
